<svg xmlns="http://www.w3.org/2000/svg" width="19.367" height="19.368" viewBox="0 0 19.367 19.368">
  <g id="Group_3" data-name="Group 3" transform="translate(0)">
    <path id="Path_1" data-name="Path 1" d="M14.73,57.09a1.357,1.357,0,0,0-2.051,0c-.48.476-.959.951-1.431,1.435a.283.283,0,0,1-.395.073c-.31-.169-.641-.306-.939-.492a14.878,14.878,0,0,1-3.587-3.264,8.5,8.5,0,0,1-1.286-2.059.3.3,0,0,1,.073-.379c.48-.463.947-.939,1.419-1.415a1.362,1.362,0,0,0,0-2.1c-.375-.379-.75-.75-1.124-1.128s-.77-.778-1.161-1.161a1.366,1.366,0,0,0-2.051,0c-.484.476-.947.963-1.439,1.431A2.335,2.335,0,0,0,.02,49.61a6.676,6.676,0,0,0,.516,2.874,17.461,17.461,0,0,0,3.1,5.163,19.179,19.179,0,0,0,6.352,4.969A9.186,9.186,0,0,0,13.5,63.639a2.578,2.578,0,0,0,2.213-.842c.411-.459.875-.879,1.31-1.318a1.371,1.371,0,0,0,.008-2.088Q15.887,58.237,14.73,57.09Z" transform="translate(-0.006 -44.278)" fill="#fff"/>
    <path id="Path_2" data-name="Path 2" d="M242.223,101.731l1.487-.254A6.675,6.675,0,0,0,238.064,96l-.21,1.5a5.159,5.159,0,0,1,4.369,4.236Z" transform="translate(-228.268 -92.131)" fill="#fff"/>
    <path id="Path_3" data-name="Path 3" d="M249.251,3.135A10.966,10.966,0,0,0,242.964,0l-.21,1.5a9.568,9.568,0,0,1,8.1,7.847l1.487-.254A11.046,11.046,0,0,0,249.251,3.135Z" transform="translate(-232.971)" fill="#fff"/>
  </g>
</svg>
